{
	"@odata.context":"https://test.cara.ashleyretail.com/odata/$metadata#PurchaseHistoryReport","value":[
		{
			"Storeid": "133",
			"ProfitCenter": "23",
			"SaleOrder": "200462400",
			"CustomerId": "8989898989I ",
			"SalesForceId": "001q0000014SzryAAC",
			"CurrentBalance": "",
			"CustomerName": "SCALF, RYAN                        ",
			"CustomerType": "RET",
			"Address1": "102 S MAIN STREET                  ",
			"Address2": "APT 102                            ",
			"City": "MILTON              ",
			"State": "GA",
			"Zip": "30009     ",
			"Phone1": "8989898988",
			"Phone2": "3059783858",
			"Phone3": "3959789770",
			"Email": "areddy1@ashleyfurniture.com",
			"MostRecentPurchaseDate": "1/21/2019 12:00:00 AM",
			"InvoiceNo": "200462400",
			"InvoiceDate": "20190121",
			"ItemId": "ZLP-K45R            ",
			"ItemSequence": "10",
			"Decription1": "K45R QU/KING FRAME                 ",
			"Decription2": "",
			"QuantitySold": "1.00",
			"RetailPrice": "69.99",
			"ExtendedCost": "34.10",
			"sls_his_slm_1": "HOU",
			"sls_his_splt_1": "100.0000",
			"sls_his_slm_2": "   ",
			"sls_his_splt_2": "0.0000",
			"sls_his_slm_3": "   ",
			"sls_his_splt_3": "0.0000",
			"sls_his_slm_4": "   ",
			"sls_his_splt_4": "0.0000",
			"TaxCode": "260",
			"sls_his_tax_amt_1": "",
			"sls_his_tax_amt_2": "",
			"sls_his_tax_amt_3": "",
			"SalesComments1": "",
			"SalesComments2": ""
		},
		{
			"Storeid": "133",
			"ProfitCenter": "23",
			"SaleOrder": "200462400",
			"CustomerId": "8989898989I ",
			"SalesForceId": "001q0000014SzryAAC",
			"CurrentBalance": "",
			"CustomerName": "SCALF, RYAN                        ",
			"CustomerType": "RET",
			"Address1": "102 S MAIN STREET                  ",
			"Address2": "APT 102                            ",
			"City": "MILTON              ",
			"State": "GA",
			"Zip": "30009     ",
			"Phone1": "8989898988",
			"Phone2": "3059783858",
			"Phone3": "3959789770",
			"Email": "areddy1@ashleyfurniture.com",
			"MostRecentPurchaseDate": "1/21/2019 12:00:00 AM",
			"InvoiceNo": "200462401",
			"InvoiceDate": "20190122",
			"ItemId": "B697-31             ",
			"ItemSequence": "30",
			"Decription1": "ASHLEY B697-31                     ",
			"Decription2": "",
			"QuantitySold": "3.00",
			"RetailPrice": "2400.00",
			"ExtendedCost": "310.00",
			"sls_his_slm_1": "HOU",
			"sls_his_splt_1": "100.0000",
			"sls_his_slm_2": "   ",
			"sls_his_splt_2": "0.0000",
			"sls_his_slm_3": "   ",
			"sls_his_splt_3": "0.0000",
			"sls_his_slm_4": "   ",
			"sls_his_splt_4": "0.0000",
			"TaxCode": "260",
			"sls_his_tax_amt_1": "",
			"sls_his_tax_amt_2": "",
			"sls_his_tax_amt_3": "",
			"SalesComments1": "",
			"SalesComments2": ""
		},
		{
			"Storeid": "133",
			"ProfitCenter": "23",
			"SaleOrder": "200462530",
			"CustomerId": "8989898989I ",
			"SalesForceId": "001q0000014SzryAAC",
			"CurrentBalance": "",
			"CustomerName": "SCALF, RYAN                        ",
			"CustomerType": "RET",
			"Address1": "102 S MAIN STREET                  ",
			"Address2": "APT 102                            ",
			"City": "MILTON              ",
			"State": "GA",
			"Zip": "30009     ",
			"Phone1": "8989898988",
			"Phone2": "3059783858",
			"Phone3": "3959789770",
			"Email": "areddy1@ashleyfurniture.com",
			"MostRecentPurchaseDate": "1/22/2019 12:00:00 AM",
			"InvoiceNo": "200462531",
			"InvoiceDate": "20190122",
			"ItemId": "B697-31             ",
			"ItemSequence": "10",
			"Decription1": "ASHLEY B697-31                     ",
			"Decription2": "",
			"QuantitySold": "1.00",
			"RetailPrice": "800.00",
			"ExtendedCost": "310.00",
			"sls_his_slm_1": "HOU",
			"sls_his_splt_1": "25.0000",
			"sls_his_slm_2": "654",
			"sls_his_splt_2": "25.0000",
			"sls_his_slm_3": "D26",
			"sls_his_splt_3": "25.0000",
			"sls_his_slm_4": "B07",
			"sls_his_splt_4": "25.0000",
			"TaxCode": "260",
			"sls_his_tax_amt_1": "",
			"sls_his_tax_amt_2": "",
			"sls_his_tax_amt_3": "",
			"SalesComments1": "",
			"SalesComments2": ""
		},
		{
			"Storeid": "133",
			"ProfitCenter": "23",
			"SaleOrder": "200462530",
			"CustomerId": "8989898989I ",
			"SalesForceId": "001q0000014SzryAAC",
			"CurrentBalance": "",
			"CustomerName": "SCALF, RYAN                        ",
			"CustomerType": "RET",
			"Address1": "102 S MAIN STREET                  ",
			"Address2": "APT 102                            ",
			"City": "MILTON              ",
			"State": "GA",
			"Zip": "30009     ",
			"Phone1": "8989898988",
			"Phone2": "3059783858",
			"Phone3": "3959789770",
			"Email": "areddy1@ashleyfurniture.com",
			"MostRecentPurchaseDate": "1/22/2019 12:00:00 AM",
			"InvoiceNo": "200462530",
			"InvoiceDate": "20190122",
			"ItemId": "*ASHLEY             ",
			"ItemSequence": "20",
			"Decription1": "SPECIAL ORDER                      ",
			"Decription2": "",
			"QuantitySold": "1.00",
			"RetailPrice": "50.00",
			"ExtendedCost": "0.00",
			"sls_his_slm_1": "HOU",
			"sls_his_splt_1": "25.0000",
			"sls_his_slm_2": "654",
			"sls_his_splt_2": "25.0000",
			"sls_his_slm_3": "D26",
			"sls_his_splt_3": "25.0000",
			"sls_his_slm_4": "B07",
			"sls_his_splt_4": "25.0000",
			"TaxCode": "260",
			"sls_his_tax_amt_1": "",
			"sls_his_tax_amt_2": "",
			"sls_his_tax_amt_3": "",
			"SalesComments1": "",
			"SalesComments2": ""
		},
		{
			"Storeid": "133",
			"ProfitCenter": "23",
			"SaleOrder": "200462990",
			"CustomerId": "8989898989I ",
			"SalesForceId": "001q0000014SzryAAC",
			"CurrentBalance": "",
			"CustomerName": "SCALF, RYAN                        ",
			"CustomerType": "RET",
			"Address1": "102 S MAIN STREET                  ",
			"Address2": "APT 102                            ",
			"City": "MILTON              ",
			"State": "GA",
			"Zip": "30009     ",
			"Phone1": "8989898988",
			"Phone2": "3059783858",
			"Phone3": "3959789770",
			"Email": "areddy1@ashleyfurniture.com",
			"MostRecentPurchaseDate": "1/29/2019 12:00:00 AM",
			"InvoiceNo": "200462990",
			"InvoiceDate": "20190130",
			"ItemId": "*FURNPRO NT         ",
			"ItemSequence": "20",
			"Decription1": "5 YR FURNITURE PROTECTION PLAN     ",
			"Decription2": "",
			"QuantitySold": "1.00",
			"RetailPrice": "49.99",
			"ExtendedCost": "0.00",
			"sls_his_slm_1": "HOU",
			"sls_his_splt_1": "100.0000",
			"sls_his_slm_2": "   ",
			"sls_his_splt_2": "0.0000",
			"sls_his_slm_3": "   ",
			"sls_his_splt_3": "0.0000",
			"sls_his_slm_4": "   ",
			"sls_his_splt_4": "0.0000",
			"TaxCode": "260",
			"sls_his_tax_amt_1": "",
			"sls_his_tax_amt_2": "",
			"sls_his_tax_amt_3": "",
			"SalesComments1": "",
			"SalesComments2": ""
		},
		{
			"Storeid": "133",
			"ProfitCenter": "23",
			"SaleOrder": "200462990",
			"CustomerId": "8989898989I ",
			"SalesForceId": "001q0000014SzryAAC",
			"CurrentBalance": "",
			"CustomerName": "SCALF, RYAN                        ",
			"CustomerType": "RET",
			"Address1": "102 S MAIN STREET                  ",
			"Address2": "APT 102                            ",
			"City": "MILTON              ",
			"State": "GA",
			"Zip": "30009     ",
			"Phone1": "8989898988",
			"Phone2": "3059783858",
			"Phone3": "3959789770",
			"Email": "areddy1@ashleyfurniture.com",
			"MostRecentPurchaseDate": "1/29/2019 12:00:00 AM",
			"InvoiceNo": "200462990",
			"InvoiceDate": "20190130",
			"ItemId": "B502-84             ",
			"ItemSequence": "10",
			"Decription1": "ASHLEY B502-84                     ",
			"Decription2": "",
			"QuantitySold": "8.00",
			"RetailPrice": "1400.00",
			"ExtendedCost": "80.88",
			"sls_his_slm_1": "HOU",
			"sls_his_splt_1": "100.0000",
			"sls_his_slm_2": "   ",
			"sls_his_splt_2": "0.0000",
			"sls_his_slm_3": "   ",
			"sls_his_splt_3": "0.0000",
			"sls_his_slm_4": "   ",
			"sls_his_splt_4": "0.0000",
			"TaxCode": "260",
			"sls_his_tax_amt_1": "",
			"sls_his_tax_amt_2": "",
			"sls_his_tax_amt_3": "",
			"SalesComments1": "",
			"SalesComments2": ""
		},
		{
			"Storeid": "133",
			"ProfitCenter": "23",
			"SaleOrder": "200462990",
			"CustomerId": "8989898989I ",
			"SalesForceId": "001q0000014SzryAAC",
			"CurrentBalance": "",
			"CustomerName": "SCALF, RYAN                        ",
			"CustomerType": "RET",
			"Address1": "102 S MAIN STREET                  ",
			"Address2": "APT 102                            ",
			"City": "MILTON              ",
			"State": "GA",
			"Zip": "30009     ",
			"Phone1": "8989898988",
			"Phone2": "3059783858",
			"Phone3": "3959789770",
			"Email": "areddy1@ashleyfurniture.com",
			"MostRecentPurchaseDate": "1/29/2019 12:00:00 AM",
			"InvoiceNo": "200462990",
			"InvoiceDate": "20190130",
			"ItemId": "B502-84             ",
			"ItemSequence": "11",
			"Decription1": "ASHLEY B502-84                     ",
			"Decription2": "",
			"QuantitySold": "1.00",
			"RetailPrice": "175.00",
			"ExtendedCost": "80.88",
			"sls_his_slm_1": "HOU",
			"sls_his_splt_1": "100.0000",
			"sls_his_slm_2": "   ",
			"sls_his_splt_2": "0.0000",
			"sls_his_slm_3": "   ",
			"sls_his_splt_3": "0.0000",
			"sls_his_slm_4": "   ",
			"sls_his_splt_4": "0.0000",
			"TaxCode": "260",
			"sls_his_tax_amt_1": "",
			"sls_his_tax_amt_2": "",
			"sls_his_tax_amt_3": "",
			"SalesComments1": "",
			"SalesComments2": ""
		},
		{
			"Storeid": "133",
			"ProfitCenter": "23",
			"SaleOrder": "200462990",
			"CustomerId": "8989898989I ",
			"SalesForceId": "001q0000014SzryAAC",
			"CurrentBalance": "",
			"CustomerName": "SCALF, RYAN                        ",
			"CustomerType": "RET",
			"Address1": "102 S MAIN STREET                  ",
			"Address2": "APT 102                            ",
			"City": "MILTON              ",
			"State": "GA",
			"Zip": "30009     ",
			"Phone1": "8989898988",
			"Phone2": "3059783858",
			"Phone3": "3959789770",
			"Email": "areddy1@ashleyfurniture.com",
			"MostRecentPurchaseDate": "1/29/2019 12:00:00 AM",
			"InvoiceNo": "200462990",
			"InvoiceDate": "20190130",
			"ItemId": "B502-84             ",
			"ItemSequence": "12",
			"Decription1": "ASHLEY B502-84                     ",
			"Decription2": "",
			"QuantitySold": "3.00",
			"RetailPrice": "525.00",
			"ExtendedCost": "80.88",
			"sls_his_slm_1": "HOU",
			"sls_his_splt_1": "100.0000",
			"sls_his_slm_2": "   ",
			"sls_his_splt_2": "0.0000",
			"sls_his_slm_3": "   ",
			"sls_his_splt_3": "0.0000",
			"sls_his_slm_4": "   ",
			"sls_his_splt_4": "0.0000",
			"TaxCode": "260",
			"sls_his_tax_amt_1": "",
			"sls_his_tax_amt_2": "",
			"sls_his_tax_amt_3": "",
			"SalesComments1": "",
			"SalesComments2": ""
		},
		{
			"Storeid": "133",
			"ProfitCenter": "23",
			"SaleOrder": "200462990",
			"CustomerId": "8989898989I ",
			"SalesForceId": "001q0000014SzryAAC",
			"CurrentBalance": "",
			"CustomerName": "SCALF, RYAN                        ",
			"CustomerType": "RET",
			"Address1": "102 S MAIN STREET                  ",
			"Address2": "APT 102                            ",
			"City": "MILTON              ",
			"State": "GA",
			"Zip": "30009     ",
			"Phone1": "8989898988",
			"Phone2": "3059783858",
			"Phone3": "3959789770",
			"Email": "areddy1@ashleyfurniture.com",
			"MostRecentPurchaseDate": "1/29/2019 12:00:00 AM",
			"InvoiceNo": "200462990",
			"InvoiceDate": "20190130",
			"ItemId": "B502-84             ",
			"ItemSequence": "13",
			"Decription1": "ASHLEY B502-84                     ",
			"Decription2": "",
			"QuantitySold": "1.00",
			"RetailPrice": "175.00",
			"ExtendedCost": "80.88",
			"sls_his_slm_1": "HOU",
			"sls_his_splt_1": "100.0000",
			"sls_his_slm_2": "   ",
			"sls_his_splt_2": "0.0000",
			"sls_his_slm_3": "   ",
			"sls_his_splt_3": "0.0000",
			"sls_his_slm_4": "   ",
			"sls_his_splt_4": "0.0000",
			"TaxCode": "260",
			"sls_his_tax_amt_1": "",
			"sls_his_tax_amt_2": "",
			"sls_his_tax_amt_3": "",
			"SalesComments1": "",
			"SalesComments2": ""
		},
		{
			"Storeid": "133",
			"ProfitCenter": "23",
			"SaleOrder": "200462990",
			"CustomerId": "8989898989I ",
			"SalesForceId": "001q0000014SzryAAC",
			"CurrentBalance": "",
			"CustomerName": "SCALF, RYAN                        ",
			"CustomerType": "RET",
			"Address1": "102 S MAIN STREET                  ",
			"Address2": "APT 102                            ",
			"City": "MILTON              ",
			"State": "GA",
			"Zip": "30009     ",
			"Phone1": "8989898988",
			"Phone2": "3059783858",
			"Phone3": "3959789770",
			"Email": "areddy1@ashleyfurniture.com",
			"MostRecentPurchaseDate": "1/29/2019 12:00:00 AM",
			"InvoiceNo": "200462990",
			"InvoiceDate": "20190130",
			"ItemId": "B502-84             ",
			"ItemSequence": "14",
			"Decription1": "ASHLEY B502-84                     ",
			"Decription2": "",
			"QuantitySold": "3.00",
			"RetailPrice": "525.00",
			"ExtendedCost": "80.88",
			"sls_his_slm_1": "HOU",
			"sls_his_splt_1": "100.0000",
			"sls_his_slm_2": "   ",
			"sls_his_splt_2": "0.0000",
			"sls_his_slm_3": "   ",
			"sls_his_splt_3": "0.0000",
			"sls_his_slm_4": "   ",
			"sls_his_splt_4": "0.0000",
			"TaxCode": "260",
			"sls_his_tax_amt_1": "",
			"sls_his_tax_amt_2": "",
			"sls_his_tax_amt_3": "",
			"SalesComments1": "",
			"SalesComments2": ""
		},
		{
			"Storeid": "133",
			"ProfitCenter": "23",
			"SaleOrder": "200463160",
			"CustomerId": "8989898989I ",
			"SalesForceId": "001q0000014SzryAAC",
			"CurrentBalance": "",
			"CustomerName": "SCALF, RYAN                        ",
			"CustomerType": "RET",
			"Address1": "102 S MAIN STREET                  ",
			"Address2": "APT 102                            ",
			"City": "MILTON              ",
			"State": "GA",
			"Zip": "30009     ",
			"Phone1": "8989898988",
			"Phone2": "3059783858",
			"Phone3": "3959789770",
			"Email": "areddy1@ashleyfurniture.com",
			"MostRecentPurchaseDate": "2/1/2019 12:00:00 AM",
			"InvoiceNo": "200463160",
			"InvoiceDate": "20190201",
			"ItemId": "*090909A            ",
			"ItemSequence": "40",
			"Decription1": "Reserves Price Only.               ",
			"Decription2": "",
			"QuantitySold": "1.00",
			"RetailPrice": "0.00",
			"ExtendedCost": "0.00",
			"sls_his_slm_1": "HOU",
			"sls_his_splt_1": "100.0000",
			"sls_his_slm_2": "   ",
			"sls_his_splt_2": "0.0000",
			"sls_his_slm_3": "   ",
			"sls_his_splt_3": "0.0000",
			"sls_his_slm_4": "   ",
			"sls_his_splt_4": "0.0000",
			"TaxCode": "260",
			"sls_his_tax_amt_1": "",
			"sls_his_tax_amt_2": "",
			"sls_his_tax_amt_3": "",
			"SalesComments1": "",
			"SalesComments2": ""
		},
		{
			"Storeid": "133",
			"ProfitCenter": "23",
			"SaleOrder": "200463160",
			"CustomerId": "8989898989I ",
			"SalesForceId": "001q0000014SzryAAC",
			"CurrentBalance": "",
			"CustomerName": "SCALF, RYAN                        ",
			"CustomerType": "RET",
			"Address1": "102 S MAIN STREET                  ",
			"Address2": "APT 102                            ",
			"City": "MILTON              ",
			"State": "GA",
			"Zip": "30009     ",
			"Phone1": "8989898988",
			"Phone2": "3059783858",
			"Phone3": "3959789770",
			"Email": "areddy1@ashleyfurniture.com",
			"MostRecentPurchaseDate": "2/1/2019 12:00:00 AM",
			"InvoiceNo": "200463160",
			"InvoiceDate": "20190201",
			"ItemId": "*AS IS              ",
			"ItemSequence": "30",
			"Decription1": "*** ALL SALES FINAL *** NO RETURNS ",
			"Decription2": "",
			"QuantitySold": "1.00",
			"RetailPrice": "0.00",
			"ExtendedCost": "0.00",
			"sls_his_slm_1": "HOU",
			"sls_his_splt_1": "100.0000",
			"sls_his_slm_2": "   ",
			"sls_his_splt_2": "0.0000",
			"sls_his_slm_3": "   ",
			"sls_his_splt_3": "0.0000",
			"sls_his_slm_4": "   ",
			"sls_his_splt_4": "0.0000",
			"TaxCode": "260",
			"sls_his_tax_amt_1": "",
			"sls_his_tax_amt_2": "",
			"sls_his_tax_amt_3": "",
			"SalesComments1": "",
			"SalesComments2": ""
		},
		{
			"Storeid": "133",
			"ProfitCenter": "23",
			"SaleOrder": "200463160",
			"CustomerId": "8989898989I ",
			"SalesForceId": "001q0000014SzryAAC",
			"CurrentBalance": "",
			"CustomerName": "SCALF, RYAN                        ",
			"CustomerType": "RET",
			"Address1": "102 S MAIN STREET                  ",
			"Address2": "APT 102                            ",
			"City": "MILTON              ",
			"State": "GA",
			"Zip": "30009     ",
			"Phone1": "8989898988",
			"Phone2": "3059783858",
			"Phone3": "3959789770",
			"Email": "areddy1@ashleyfurniture.com",
			"MostRecentPurchaseDate": "2/1/2019 12:00:00 AM",
			"InvoiceNo": "200463160",
			"InvoiceDate": "20190201",
			"ItemId": "*DELIV-TAX          ",
			"ItemSequence": "20",
			"Decription1": "Delivery Fees                      ",
			"Decription2": "",
			"QuantitySold": "1.00",
			"RetailPrice": "89.00",
			"ExtendedCost": "0.00",
			"sls_his_slm_1": "HOU",
			"sls_his_splt_1": "100.0000",
			"sls_his_slm_2": "   ",
			"sls_his_splt_2": "0.0000",
			"sls_his_slm_3": "   ",
			"sls_his_splt_3": "0.0000",
			"sls_his_slm_4": "   ",
			"sls_his_splt_4": "0.0000",
			"TaxCode": "260",
			"sls_his_tax_amt_1": "",
			"sls_his_tax_amt_2": "",
			"sls_his_tax_amt_3": "",
			"SalesComments1": "",
			"SalesComments2": ""
		},
		{
			"Storeid": "133",
			"ProfitCenter": "23",
			"SaleOrder": "200463160",
			"CustomerId": "8989898989I ",
			"SalesForceId": "001q0000014SzryAAC",
			"CurrentBalance": "",
			"CustomerName": "SCALF, RYAN                        ",
			"CustomerType": "RET",
			"Address1": "102 S MAIN STREET                  ",
			"Address2": "APT 102                            ",
			"City": "MILTON              ",
			"State": "GA",
			"Zip": "30009     ",
			"Phone1": "8989898988",
			"Phone2": "3059783858",
			"Phone3": "3959789770",
			"Email": "areddy1@ashleyfurniture.com",
			"MostRecentPurchaseDate": "2/1/2019 12:00:00 AM",
			"InvoiceNo": "200463160",
			"InvoiceDate": "20190201",
			"ItemId": "*FURNPRO NT         ",
			"ItemSequence": "50",
			"Decription1": "5 YR FURNITURE PROTECTION PLAN     ",
			"Decription2": "",
			"QuantitySold": "1.00",
			"RetailPrice": "49.99",
			"ExtendedCost": "0.00",
			"sls_his_slm_1": "HOU",
			"sls_his_splt_1": "100.0000",
			"sls_his_slm_2": "   ",
			"sls_his_splt_2": "0.0000",
			"sls_his_slm_3": "   ",
			"sls_his_splt_3": "0.0000",
			"sls_his_slm_4": "   ",
			"sls_his_splt_4": "0.0000",
			"TaxCode": "260",
			"sls_his_tax_amt_1": "",
			"sls_his_tax_amt_2": "",
			"sls_his_tax_amt_3": "",
			"SalesComments1": "",
			"SalesComments2": ""
		},
		{
			"Storeid": "133",
			"ProfitCenter": "23",
			"SaleOrder": "200463160",
			"CustomerId": "8989898989I ",
			"SalesForceId": "001q0000014SzryAAC",
			"CurrentBalance": "",
			"CustomerName": "SCALF, RYAN                        ",
			"CustomerType": "RET",
			"Address1": "102 S MAIN STREET                  ",
			"Address2": "APT 102                            ",
			"City": "MILTON              ",
			"State": "GA",
			"Zip": "30009     ",
			"Phone1": "8989898988",
			"Phone2": "3059783858",
			"Phone3": "3959789770",
			"Email": "areddy1@ashleyfurniture.com",
			"MostRecentPurchaseDate": "2/1/2019 12:00:00 AM",
			"InvoiceNo": "200463160",
			"InvoiceDate": "20190201",
			"ItemId": "100-11              ",
			"ItemSequence": "10",
			"Decription1": "ASHLEY 100-11                      ",
			"Decription2": "",
			"QuantitySold": "1.00",
			"RetailPrice": "0.00",
			"ExtendedCost": "141.74",
			"sls_his_slm_1": "HOU",
			"sls_his_splt_1": "100.0000",
			"sls_his_slm_2": "   ",
			"sls_his_splt_2": "0.0000",
			"sls_his_slm_3": "   ",
			"sls_his_splt_3": "0.0000",
			"sls_his_slm_4": "   ",
			"sls_his_splt_4": "0.0000",
			"TaxCode": "260",
			"sls_his_tax_amt_1": "",
			"sls_his_tax_amt_2": "",
			"sls_his_tax_amt_3": "",
			"SalesComments1": "",
			"SalesComments2": ""
		},
		{
			"Storeid": "133",
			"ProfitCenter": "23",
			"SaleOrder": "200463660",
			"CustomerId": "8989898989I ",
			"SalesForceId": "001q0000014SzryAAC",
			"CurrentBalance": "",
			"CustomerName": "SCALF, RYAN                        ",
			"CustomerType": "RET",
			"Address1": "102 S MAIN STREET                  ",
			"Address2": "APT 102                            ",
			"City": "MILTON              ",
			"State": "GA",
			"Zip": "30009     ",
			"Phone1": "8989898988",
			"Phone2": "3059783858",
			"Phone3": "3959789770",
			"Email": "areddy1@ashleyfurniture.com",
			"MostRecentPurchaseDate": "2/18/2019 12:00:00 AM",
			"InvoiceNo": "200463660",
			"InvoiceDate": "20190218",
			"ItemId": "*RUGPRO NT          ",
			"ItemSequence": "20",
			"Decription1": "5 YR RUG PROTECTION PLAN           ",
			"Decription2": "5 YR RUG PROTECTION PLAN           ",
			"QuantitySold": "1.00",
			"RetailPrice": "99.99",
			"ExtendedCost": "0.00",
			"sls_his_slm_1": "HOU",
			"sls_his_splt_1": "50.0000",
			"sls_his_slm_2": "D26",
			"sls_his_splt_2": "25.0000",
			"sls_his_slm_3": "B07",
			"sls_his_splt_3": "25.0000",
			"sls_his_slm_4": "   ",
			"sls_his_splt_4": "0.0000",
			"TaxCode": "34 ",
			"sls_his_tax_amt_1": "",
			"sls_his_tax_amt_2": "",
			"sls_his_tax_amt_3": "",
			"SalesComments1": "",
			"SalesComments2": ""
		},
		{
			"Storeid": "133",
			"ProfitCenter": "23",
			"SaleOrder": "200463660",
			"CustomerId": "8989898989I ",
			"SalesForceId": "001q0000014SzryAAC",
			"CurrentBalance": "",
			"CustomerName": "SCALF, RYAN                        ",
			"CustomerType": "RET",
			"Address1": "102 S MAIN STREET                  ",
			"Address2": "APT 102                            ",
			"City": "MILTON              ",
			"State": "GA",
			"Zip": "30009     ",
			"Phone1": "8989898988",
			"Phone2": "3059783858",
			"Phone3": "3959789770",
			"Email": "areddy1@ashleyfurniture.com",
			"MostRecentPurchaseDate": "2/18/2019 12:00:00 AM",
			"InvoiceNo": "200463660",
			"InvoiceDate": "20190218",
			"ItemId": "B697-31             ",
			"ItemSequence": "10",
			"Decription1": "ASHLEY B697-31                     ",
			"Decription2": "Dresser/Porter/Rustic Brown        ",
			"QuantitySold": "1.00",
			"RetailPrice": "800.00",
			"ExtendedCost": "310.00",
			"sls_his_slm_1": "HOU",
			"sls_his_splt_1": "50.0000",
			"sls_his_slm_2": "D26",
			"sls_his_splt_2": "25.0000",
			"sls_his_slm_3": "B07",
			"sls_his_splt_3": "25.0000",
			"sls_his_slm_4": "   ",
			"sls_his_splt_4": "0.0000",
			"TaxCode": "34 ",
			"sls_his_tax_amt_1": "",
			"sls_his_tax_amt_2": "",
			"sls_his_tax_amt_3": "",
			"SalesComments1": "",
			"SalesComments2": ""
		},
		{
			"Storeid": "133",
			"ProfitCenter": "23",
			"SaleOrder": "200464400",
			"CustomerId": "8989898989I ",
			"SalesForceId": "001q0000014SzryAAC",
			"CurrentBalance": "",
			"CustomerName": "SCALF,  RYAN                       ",
			"CustomerType": "RET",
			"Address1": "102 S MAIN STREET                  ",
			"Address2": "APT 102                            ",
			"City": "MILTON              ",
			"State": "GA",
			"Zip": "30009     ",
			"Phone1": "8989898988",
			"Phone2": "3059783858",
			"Phone3": "3959789770",
			"Email": "areddy1@ashleyfurniture.com",
			"MostRecentPurchaseDate": "2/26/2019 12:00:00 AM",
			"InvoiceNo": "200464400",
			"InvoiceDate": "20190227",
			"ItemId": "*HCC                ",
			"ItemSequence": "30",
			"Decription1": "Customer Care                      ",
			"Decription2": "Customer Care                      ",
			"QuantitySold": "1.00",
			"RetailPrice": "0.00",
			"ExtendedCost": "0.00",
			"sls_his_slm_1": "HOU",
			"sls_his_splt_1": "100.0000",
			"sls_his_slm_2": "   ",
			"sls_his_splt_2": "0.0000",
			"sls_his_slm_3": "   ",
			"sls_his_splt_3": "0.0000",
			"sls_his_slm_4": "   ",
			"sls_his_splt_4": "0.0000",
			"TaxCode": "260",
			"sls_his_tax_amt_1": "",
			"sls_his_tax_amt_2": "",
			"sls_his_tax_amt_3": "",
			"SalesComments1": "",
			"SalesComments2": ""
		},
		{
			"Storeid": "133",
			"ProfitCenter": "23",
			"SaleOrder": "200464400",
			"CustomerId": "8989898989I ",
			"SalesForceId": "001q0000014SzryAAC",
			"CurrentBalance": "",
			"CustomerName": "SCALF,  RYAN                       ",
			"CustomerType": "RET",
			"Address1": "102 S MAIN STREET                  ",
			"Address2": "APT 102                            ",
			"City": "MILTON              ",
			"State": "GA",
			"Zip": "30009     ",
			"Phone1": "8989898988",
			"Phone2": "3059783858",
			"Phone3": "3959789770",
			"Email": "areddy1@ashleyfurniture.com",
			"MostRecentPurchaseDate": "2/26/2019 12:00:00 AM",
			"InvoiceNo": "200464400",
			"InvoiceDate": "20190227",
			"ItemId": "*VIP                ",
			"ItemSequence": "40",
			"Decription1": "Do not use Homestore stock         ",
			"Decription2": "Do not use Homestore stock         ",
			"QuantitySold": "1.00",
			"RetailPrice": "0.00",
			"ExtendedCost": "0.00",
			"sls_his_slm_1": "HOU",
			"sls_his_splt_1": "100.0000",
			"sls_his_slm_2": "   ",
			"sls_his_splt_2": "0.0000",
			"sls_his_slm_3": "   ",
			"sls_his_splt_3": "0.0000",
			"sls_his_slm_4": "   ",
			"sls_his_splt_4": "0.0000",
			"TaxCode": "260",
			"sls_his_tax_amt_1": "",
			"sls_his_tax_amt_2": "",
			"sls_his_tax_amt_3": "",
			"SalesComments1": "",
			"SalesComments2": ""
		},
		{
			"Storeid": "133",
			"ProfitCenter": "23",
			"SaleOrder": "200464400",
			"CustomerId": "8989898989I ",
			"SalesForceId": "001q0000014SzryAAC",
			"CurrentBalance": "",
			"CustomerName": "SCALF,  RYAN                       ",
			"CustomerType": "RET",
			"Address1": "102 S MAIN STREET                  ",
			"Address2": "APT 102                            ",
			"City": "MILTON              ",
			"State": "GA",
			"Zip": "30009     ",
			"Phone1": "8989898988",
			"Phone2": "3059783858",
			"Phone3": "3959789770",
			"Email": "areddy1@ashleyfurniture.com",
			"MostRecentPurchaseDate": "2/26/2019 12:00:00 AM",
			"InvoiceNo": "200464400",
			"InvoiceDate": "20190227",
			"ItemId": "B697-31             ",
			"ItemSequence": "10",
			"Decription1": "ASHLEY B697-31                     ",
			"Decription2": "Dresser/Porter/Rustic Brown        ",
			"QuantitySold": "-1.00",
			"RetailPrice": "-800.00",
			"ExtendedCost": "310.00",
			"sls_his_slm_1": "HOU",
			"sls_his_splt_1": "100.0000",
			"sls_his_slm_2": "   ",
			"sls_his_splt_2": "0.0000",
			"sls_his_slm_3": "   ",
			"sls_his_splt_3": "0.0000",
			"sls_his_slm_4": "   ",
			"sls_his_splt_4": "0.0000",
			"TaxCode": "260",
			"sls_his_tax_amt_1": "",
			"sls_his_tax_amt_2": "",
			"sls_his_tax_amt_3": "",
			"SalesComments1": "",
			"SalesComments2": ""
		},
		{
			"Storeid": "133",
			"ProfitCenter": "23",
			"SaleOrder": "200464400",
			"CustomerId": "8989898989I ",
			"SalesForceId": "001q0000014SzryAAC",
			"CurrentBalance": "",
			"CustomerName": "SCALF,  RYAN                       ",
			"CustomerType": "RET",
			"Address1": "102 S MAIN STREET                  ",
			"Address2": "APT 102                            ",
			"City": "MILTON              ",
			"State": "GA",
			"Zip": "30009     ",
			"Phone1": "8989898988",
			"Phone2": "3059783858",
			"Phone3": "3959789770",
			"Email": "areddy1@ashleyfurniture.com",
			"MostRecentPurchaseDate": "2/26/2019 12:00:00 AM",
			"InvoiceNo": "200464400",
			"InvoiceDate": "20190227",
			"ItemId": "B697-31             ",
			"ItemSequence": "20",
			"Decription1": "ASHLEY B697-31                     ",
			"Decription2": "Dresser/Porter/Rustic Brown        ",
			"QuantitySold": "1.00",
			"RetailPrice": "800.00",
			"ExtendedCost": "310.00",
			"sls_his_slm_1": "HOU",
			"sls_his_splt_1": "100.0000",
			"sls_his_slm_2": "   ",
			"sls_his_splt_2": "0.0000",
			"sls_his_slm_3": "   ",
			"sls_his_splt_3": "0.0000",
			"sls_his_slm_4": "   ",
			"sls_his_splt_4": "0.0000",
			"TaxCode": "260",
			"sls_his_tax_amt_1": "",
			"sls_his_tax_amt_2": "",
			"sls_his_tax_amt_3": "",
			"SalesComments1": "",
			"SalesComments2": ""
		},
		{
			"Storeid": "133",
			"ProfitCenter": "23",
			"SaleOrder": "21111970",
			"CustomerId": "8989898989I ",
			"SalesForceId": "001q0000014SzryAAC",
			"CurrentBalance": "",
			"CustomerName": "SCALF, RYAN                        ",
			"CustomerType": "RET",
			"Address1": "102 S MAIN STREET                  ",
			"Address2": "APT 102                            ",
			"City": "MILTON              ",
			"State": "GA",
			"Zip": "30009     ",
			"Phone1": "8989898988",
			"Phone2": "3059783858",
			"Phone3": "3959789770",
			"Email": "areddy1@ashleyfurniture.com",
			"MostRecentPurchaseDate": "2/5/2019 12:00:00 AM",
			"InvoiceNo": "21111970",
			"InvoiceDate": "20190227",
			"ItemId": "B697-31             ",
			"ItemSequence": "10",
			"Decription1": "ASHLEY B697-31                     ",
			"Decription2": "Dresser/Porter/Rustic Brown        ",
			"QuantitySold": "2.00",
			"RetailPrice": "1600.00",
			"ExtendedCost": "310.00",
			"sls_his_slm_1": "HOU",
			"sls_his_splt_1": "25.0000",
			"sls_his_slm_2": "654",
			"sls_his_splt_2": "25.0000",
			"sls_his_slm_3": "D26",
			"sls_his_splt_3": "25.0000",
			"sls_his_slm_4": "B07",
			"sls_his_splt_4": "25.0000",
			"TaxCode": "240",
			"sls_his_tax_amt_1": "",
			"sls_his_tax_amt_2": "",
			"sls_his_tax_amt_3": "",
			"SalesComments1": "",
			"SalesComments2": ""
		},
		{
			"Storeid": "133",
			"ProfitCenter": "23",
			"SaleOrder": "200464980",
			"CustomerId": "8989898989I ",
			"SalesForceId": "001q0000014SzryAAC",
			"CurrentBalance": "",
			"CustomerName": "SCALF, RYAN                        ",
			"CustomerType": "RET",
			"Address1": "102 S MAIN STREET                  ",
			"Address2": "APT 102                            ",
			"City": "MILTON              ",
			"State": "GA",
			"Zip": "30009     ",
			"Phone1": "8989898988",
			"Phone2": "3059783858",
			"Phone3": "3959789770",
			"Email": "areddy1@ashleyfurniture.com",
			"MostRecentPurchaseDate": "3/4/2019 12:00:00 AM",
			"InvoiceNo": "200464980",
			"InvoiceDate": "20190304",
			"ItemId": "000001990026        ",
			"ItemSequence": "10",
			"Decription1": "ASHLEY 1990026                     ",
			"Decription2": "High Leg Recliner/Santa Fe/Bark    ",
			"QuantitySold": "1.00",
			"RetailPrice": "699.99",
			"ExtendedCost": "288.70",
			"sls_his_slm_1": "HOU",
			"sls_his_splt_1": "100.0000",
			"sls_his_slm_2": "   ",
			"sls_his_splt_2": "0.0000",
			"sls_his_slm_3": "   ",
			"sls_his_splt_3": "0.0000",
			"sls_his_slm_4": "   ",
			"sls_his_splt_4": "0.0000",
			"TaxCode": "260",
			"sls_his_tax_amt_1": "",
			"sls_his_tax_amt_2": "",
			"sls_his_tax_amt_3": "",
			"SalesComments1": "",
			"SalesComments2": ""
		},
		{
			"Storeid": "133",
			"ProfitCenter": "23",
			"SaleOrder": "200465000",
			"CustomerId": "8989898989I ",
			"SalesForceId": "001q0000014SzryAAC",
			"CurrentBalance": "",
			"CustomerName": "SCALF, RYAN                        ",
			"CustomerType": "RET",
			"Address1": "102 S MAIN STREET                  ",
			"Address2": "APT 102                            ",
			"City": "MILTON              ",
			"State": "GA",
			"Zip": "30009     ",
			"Phone1": "8989898988",
			"Phone2": "3059783858",
			"Phone3": "3959789770",
			"Email": "areddy1@ashleyfurniture.com",
			"MostRecentPurchaseDate": "3/4/2019 12:00:00 AM",
			"InvoiceNo": "200465000",
			"InvoiceDate": "20190304",
			"ItemId": "000001990026        ",
			"ItemSequence": "10",
			"Decription1": "ASHLEY 1990026                     ",
			"Decription2": "High Leg Recliner/Santa Fe/Bark    ",
			"QuantitySold": "1.00",
			"RetailPrice": "699.99",
			"ExtendedCost": "288.70",
			"sls_his_slm_1": "HOU",
			"sls_his_splt_1": "100.0000",
			"sls_his_slm_2": "   ",
			"sls_his_splt_2": "0.0000",
			"sls_his_slm_3": "   ",
			"sls_his_splt_3": "0.0000",
			"sls_his_slm_4": "   ",
			"sls_his_splt_4": "0.0000",
			"TaxCode": "260",
			"sls_his_tax_amt_1": "",
			"sls_his_tax_amt_2": "",
			"sls_his_tax_amt_3": "",
			"SalesComments1": "",
			"SalesComments2": ""
		},
		{
			"Storeid": "133",
			"ProfitCenter": "23",
			"SaleOrder": "200463990",
			"CustomerId": "8989898989I ",
			"SalesForceId": "001q0000014SzryAAC",
			"CurrentBalance": "1795.55",
			"CustomerName": "SCALF, RYAN                        ",
			"CustomerType": "RET",
			"Address1": "102 S MAIN STREET                  ",
			"Address2": "APT 102                            ",
			"City": "MILTON              ",
			"State": "GA",
			"Zip": "30009     ",
			"Phone1": "8989898988",
			"Phone2": "3059783858",
			"Phone3": "3959789770",
			"Email": "areddy1@ashleyfurniture.com",
			"MostRecentPurchaseDate": "2/21/2019 12:00:00 AM",
			"InvoiceNo": "200463990",
			"InvoiceDate": "20190221",
			"ItemId": "3X0000005484        ",
			"ItemSequence": "80",
			"Decription1": "AB HOME 73446 VOTIVE HOLDER        ",
			"Decription2": "73446 MERCURY VOTIVE HOLDER 3X5    ",
			"QuantitySold": "1.00",
			"RetailPrice": "6.99",
			"ExtendedCost": "2.53",
			"sls_his_slm_1": "HOU",
			"sls_his_splt_1": "100.0000",
			"sls_his_slm_2": "   ",
			"sls_his_splt_2": "0.0000",
			"sls_his_slm_3": "   ",
			"sls_his_splt_3": "0.0000",
			"sls_his_slm_4": "   ",
			"sls_his_splt_4": "0.0000",
			"TaxCode": "260",
			"sls_his_tax_amt_1": "",
			"sls_his_tax_amt_2": "",
			"sls_his_tax_amt_3": "",
			"SalesComments1": "8",
			"SalesComments2": "AM"
		},
		{
			"Storeid": "133",
			"ProfitCenter": "23",
			"SaleOrder": "200463990",
			"CustomerId": "8989898989I ",
			"SalesForceId": "001q0000014SzryAAC",
			"CurrentBalance": "1795.55",
			"CustomerName": "SCALF, RYAN                        ",
			"CustomerType": "RET",
			"Address1": "102 S MAIN STREET                  ",
			"Address2": "APT 102                            ",
			"City": "MILTON              ",
			"State": "GA",
			"Zip": "30009     ",
			"Phone1": "8989898988",
			"Phone2": "3059783858",
			"Phone3": "3959789770",
			"Email": "areddy1@ashleyfurniture.com",
			"MostRecentPurchaseDate": "2/21/2019 12:00:00 AM",
			"InvoiceNo": "200463990",
			"InvoiceDate": "20190221",
			"ItemId": "3X0000005484        ",
			"ItemSequence": "120",
			"Decription1": "AB HOME 73446 VOTIVE HOLDER        ",
			"Decription2": "73446 MERCURY VOTIVE HOLDER 3X5    ",
			"QuantitySold": "1.00",
			"RetailPrice": "6.99",
			"ExtendedCost": "2.53",
			"sls_his_slm_1": "HOU",
			"sls_his_splt_1": "100.0000",
			"sls_his_slm_2": "   ",
			"sls_his_splt_2": "0.0000",
			"sls_his_slm_3": "   ",
			"sls_his_splt_3": "0.0000",
			"sls_his_slm_4": "   ",
			"sls_his_splt_4": "0.0000",
			"TaxCode": "260",
			"sls_his_tax_amt_1": "",
			"sls_his_tax_amt_2": "",
			"sls_his_tax_amt_3": "",
			"SalesComments1": "8",
			"SalesComments2": "AM"
		},
		{
			"Storeid": "133",
			"ProfitCenter": "23",
			"SaleOrder": "200463990",
			"CustomerId": "8989898989I ",
			"SalesForceId": "001q0000014SzryAAC",
			"CurrentBalance": "1795.55",
			"CustomerName": "SCALF, RYAN                        ",
			"CustomerType": "RET",
			"Address1": "102 S MAIN STREET                  ",
			"Address2": "APT 102                            ",
			"City": "MILTON              ",
			"State": "GA",
			"Zip": "30009     ",
			"Phone1": "8989898988",
			"Phone2": "3059783858",
			"Phone3": "3959789770",
			"Email": "areddy1@ashleyfurniture.com",
			"MostRecentPurchaseDate": "2/21/2019 12:00:00 AM",
			"InvoiceNo": "200463990",
			"InvoiceDate": "20190221",
			"ItemId": "B697-31             ",
			"ItemSequence": "20",
			"Decription1": "ASHLEY B697-31                     ",
			"Decription2": "Dresser/Porter/Rustic Brown        ",
			"QuantitySold": "1.00",
			"RetailPrice": "800.00",
			"ExtendedCost": "310.00",
			"sls_his_slm_1": "HOU",
			"sls_his_splt_1": "100.0000",
			"sls_his_slm_2": "   ",
			"sls_his_splt_2": "0.0000",
			"sls_his_slm_3": "   ",
			"sls_his_splt_3": "0.0000",
			"sls_his_slm_4": "   ",
			"sls_his_splt_4": "0.0000",
			"TaxCode": "260",
			"sls_his_tax_amt_1": "",
			"sls_his_tax_amt_2": "",
			"sls_his_tax_amt_3": "",
			"SalesComments1": "8",
			"SalesComments2": "AM"
		}
	]
}